<?xml version="1.0" encoding="iso-8859-1"?>
<!-- Generator: Adobe Illustrator 19.0.0, SVG Export Plug-In . SVG Version: 6.00 Build 0)  -->
<svg version="1.1" id="Layer_1" xmlns="http://www.w3.org/2000/svg" xmlns:xlink="http://www.w3.org/1999/xlink" x="0px" y="0px"
	 viewBox="0 0 512 512" style="enable-background:new 0 0 512 512;" xml:space="preserve">
<circle style="fill:#CD2900;" cx="256" cy="256.313" r="247.916"/>
<path style="fill:#AC2201;" d="M256,8.402c-10.96,0-21.752,0.72-32.337,2.099c121.64,15.846,215.579,119.858,215.579,245.817
	s-93.939,229.971-215.579,245.817c10.585,1.379,21.377,2.099,32.337,2.099c136.921,0,247.916-110.996,247.916-247.916
	S392.921,8.402,256,8.402z"/>
<rect x="201.566" y="201.566" style="fill:#C0AB91;" width="87.309" height="87.309"/>
<rect x="201.566" y="115.335" style="fill:#D9CBBD;" width="195.099" height="87.309"/>
<rect x="115.335" y="115.335" style="fill:#FFFFFF;" width="87.309" height="281.331"/>
<path d="M437.019,74.982C388.667,26.628,324.379,0,256,0S123.333,26.628,74.981,74.982C26.628,123.333,0,187.62,0,256
	s26.628,132.667,74.981,181.019C123.333,485.372,187.62,512,256,512s132.667-26.628,181.019-74.982
	C485.372,388.667,512,324.379,512,256S485.372,123.333,437.019,74.982z M256,495.832C123.756,495.832,16.168,388.244,16.168,256
	S123.756,16.168,256,16.168S495.832,123.756,495.832,256S388.244,495.832,256,495.832z"/>
<path d="M396.126,107.789H115.874c-4.465,0-8.084,3.618-8.084,8.084v280.253c0,4.466,3.62,8.084,8.084,8.084h86.232
	c4.465,0,8.084-3.618,8.084-8.084v-99.705h78.147c4.465,0,8.084-3.618,8.084-8.084v-78.147h99.705c4.465,0,8.084-3.618,8.084-8.084
	v-86.232C404.211,111.408,400.591,107.789,396.126,107.789z M280.253,280.253h-70.063v-15.564c0-4.465-3.62-8.084-8.084-8.084l0,0
	c-4.465,0-8.084,3.62-8.084,8.084v123.353h-70.063V123.958h70.063V225.31c0,4.465,3.62,8.084,8.084,8.084l0,0
	c4.465,0,8.084-3.62,8.084-8.084v-15.121h70.063V280.253z M388.042,194.021H210.189v-70.063h177.853V194.021z"/>
<g>
</g>
<g>
</g>
<g>
</g>
<g>
</g>
<g>
</g>
<g>
</g>
<g>
</g>
<g>
</g>
<g>
</g>
<g>
</g>
<g>
</g>
<g>
</g>
<g>
</g>
<g>
</g>
<g>
</g>
</svg>
