<?xml version="1.0" encoding="iso-8859-1"?>
<!-- Generator: Adobe Illustrator 19.0.0, SVG Export Plug-In . SVG Version: 6.00 Build 0)  -->
<svg version="1.1" id="Layer_1" xmlns="http://www.w3.org/2000/svg" xmlns:xlink="http://www.w3.org/1999/xlink" x="0px" y="0px"
	 viewBox="0 0 512 512" style="enable-background:new 0 0 512 512;" xml:space="preserve">
<circle style="fill:#378B4E;" cx="256" cy="256" r="256"/>
<path style="fill:#317F46;" d="M256,0c-11.317,0-22.461,0.744-33.391,2.167C348.216,18.53,445.217,125.933,445.217,256
	s-97.002,237.47-222.609,253.833C233.539,511.256,244.683,512,256,512c141.385,0,256-114.616,256-256S397.385,0,256,0z"/>
<path style="fill:#FFFFFF;" d="M255.443,388.854c0-3.04-2.418-5.534-5.456-5.611c-101.871-2.568-183.761-70.172-183.761-152.905
	c0-84.354,85.132-152.981,189.774-152.981s189.774,68.627,189.774,152.981v10.512c0,44.843-21.283,99.194-55.542,141.843
	c-35.838,44.614-80.331,70.862-125.282,73.908l-3.506,0.237c-3.246,0.22-6-2.354-6-5.608V388.854z"/>
<g>
	<path style="fill:#378B4E;" d="M200.348,316.819c-4.354,0-8.447-1.695-11.524-4.775c-3.074-3.074-4.768-7.167-4.768-11.523
		s1.694-8.448,4.769-11.524l10.968-10.967v-32.603h-21.599c-6.502,0-11.793-5.29-11.793-11.793v-44.31
		c0-6.502,5.29-11.793,11.793-11.793h44.311c6.502,0,11.793,5.29,11.793,11.793v91.48c0,5.688-2.215,11.035-6.238,15.055
		l-16.187,16.187C208.795,315.124,204.702,316.819,200.348,316.819z"/>
	<path style="fill:#378B4E;" d="M322.783,316.819c-4.354,0-8.447-1.695-11.524-4.775c-3.074-3.074-4.768-7.167-4.768-11.523
		s1.694-8.448,4.769-11.524l10.968-10.967v-32.603h-21.599c-6.502,0-11.793-5.29-11.793-11.793v-44.31
		c0-6.502,5.29-11.793,11.793-11.793h44.311c6.502,0,11.793,5.29,11.793,11.793v91.48c0,5.688-2.215,11.035-6.238,15.055
		l-16.187,16.187C331.229,315.124,327.137,316.819,322.783,316.819z"/>
</g>
<g>
</g>
<g>
</g>
<g>
</g>
<g>
</g>
<g>
</g>
<g>
</g>
<g>
</g>
<g>
</g>
<g>
</g>
<g>
</g>
<g>
</g>
<g>
</g>
<g>
</g>
<g>
</g>
<g>
</g>
</svg>
