{
  "type": "service_account",
  "project_id": "msfranca",
  "private_key_id": "dbdb6282f982f40155722506087a384cae629db7",
  "private_key": "-----BEGIN PRIVATE KEY-----\nMIIEvAIBADANBgkqhkiG9w0BAQEFAASCBKYwggSiAgEAAoIBAQC2C0dVwUuaLv3Y\n6wj6TJdvtgIea1eQ9jhPAngajYZ7h6bsx7IjD/FugbVRL5U1NQT84ZDGobjALBRM\nKgaOfc6f65lzgH/F76mNCdjAFNjx7OboDbyrQmfeRQ2znuCvPGjhMDAm6r7GdDjC\nFgZSmra8eLU3R/HqRk0e7/cvmLaGBdDW7ZRdLL+9yidauY97C4NenKImmTTl9/q2\ndCh6NRX8p7W0/DfiR9NjsnHnDQRoQyGBoaExoGNzkkW1RrIvL4omTBQP82+CVGXk\nES7A6ggCDJezvf9J5L0PwI1EmWgaD3kSNCwcq+mxV3A6rkxly2iRhItgNlDahFdc\nSNmPmZXLAgMBAAECggEADwy7pwFF6Mc9wTMdGORAGMIpRq6FHLzeRtnjZ/6PQaMj\nT6vqtC9bPFGI1d9jLHTnpqhXObSg+3Ipc2p+BEWuUVY+52eWKJz5nWlU+/w9OzLk\nnAaWtGnXAG8hBNp7pMEPwp4jPPRnNSzijFkZyLZ1qPspsBpIi5+oPIiGHO85F7c7\nZChl4YflTnlfe2FeZGjeSwgCDRRmsYugog6ui0rOmwYAsIgEZLEVU/2IBSI4b3GG\n4XlLNb3RlqTAuvaiPOvck9QR0+VwTvFzLIQTvCYz0Q8zbOLdb//yJufd+1VBVXKo\nT9ErPsl6JdOvJXnEZc9DYmDJAjDkxn7Pem0+ntXQgQKBgQD05sOYa17E9UFMzB8u\n5oeYegotDLmzLL8KzKhtgAE0KeReMCy02PT5oKrO4qmItp2y9GgkqWNwxZSxTR0p\nsXpGElha7qSyUcwlmD+czQJNOU83D/F/RVbCoEcFGZF17pIoJ26DzOAUtKd9zENP\n3KmO0hQup6SIpfM50SAGxMbtawKBgQC+S0WTho7QbhDvgBq4AMCl0XgKdDGLFN8/\nl2yimP42B9fcpNAJAPAY7nWKIdx2m1iWkoIf35oP27ZbP3Z+Zo0IXmMnmhztjjFm\necfrVsFFEn78FoIE1/rVurIYaaA/iDG6Qw84/jVwSHvtFaOxPUPQaMZKoBk/xscT\nd9jr7OqxIQKBgCzjDv6kz13yReG5mA2Um03LMIpJRtAcZ3enQ0euqonRE9ZfphIP\nofcPB7+bs88nCYh/W4c8tMk6raJBrBK0QOEPA7rG+tDkRTKu0RoASWe2FVrWRUE6\niEhr8BhzM0IWVBuf/pWRu5CP/BMGmV/N5hYTUzep6nJRWF9EgUY8Uum5AoGAAf6q\nAQzlDFxLAye1n/4qBtL2Ti2/ozSZzoHY2q994rUcVyzHHYEMA0bkpokKVZf1SsbI\nZGsko0vrUnOM23BZxB+xLGYaLYdTDz7xkI79Qasa96uIu2JEN99YJJde3aug0dII\nI9HOX5ny6p5Sc/YvcszWX0vkV93Okm6sMHTwVOECgYBfp4FRE9yDD1vB8d5+KgaO\nX55uOiIP8mMWYQbDa0aJNRCWpLELJG6HvkqARMmzlr7gyezY/vQq3aFAMvfgEXju\ncKkQDpEZLt/z2JHOIjqLncybCC/XGBbVyApIjDorVEsDKccF9iHsnDL9HldcHYYW\nlGngzcO6Adw+RpxcK1gx+Q==\n-----END PRIVATE KEY-----\n",
  "client_email": "msfranca@appspot.gserviceaccount.com",
  "client_id": "",
  "auth_uri": "https://accounts.google.com/o/oauth2/auth",
  "token_uri": "https://oauth2.googleapis.com/token",
  "auth_provider_x509_cert_url": "https://www.googleapis.com/oauth2/v1/certs",
  "client_x509_cert_url": "https://www.googleapis.com/robot/v1/metadata/x509/msfranca%40appspot.gserviceaccount.com"
}
