<?xml version="1.0" encoding="iso-8859-1"?>
<!-- Generator: Adobe Illustrator 19.0.0, SVG Export Plug-In . SVG Version: 6.00 Build 0)  -->
<svg version="1.1" id="Capa_1" xmlns="http://www.w3.org/2000/svg" xmlns:xlink="http://www.w3.org/1999/xlink" x="0px" y="0px"
	 viewBox="0 0 512.001 512.001" style="enable-background:new 0 0 512.001 512.001;" xml:space="preserve">
<circle style="fill:#F1F1F1;" cx="281.99" cy="263.882" r="206.15"/>
<circle style="opacity:0.1;enable-background:new    ;" cx="281.99" cy="263.882" r="131.74"/>
<g>
	<path style="fill:#4A5058;" d="M218.407,263.172c-4.143,0-7.5-3.357-7.5-7.5v-10.731c0-4.143,3.357-7.5,7.5-7.5s7.5,3.357,7.5,7.5
		v10.731C225.907,259.815,222.55,263.172,218.407,263.172z"/>
	<path style="fill:#4A5058;" d="M344.256,263.172c-4.143,0-7.5-3.357-7.5-7.5v-10.731c0-4.143,3.357-7.5,7.5-7.5s7.5,3.357,7.5,7.5
		v10.731C351.756,259.815,348.398,263.172,344.256,263.172z"/>
	<path style="fill:#4A5058;" d="M300.108,263.884c0,10.224-8.47,18.47-18.776,18.104c-9.817-0.349-17.455-8.715-17.455-18.538
		v-12.742c0-2.728,2.211-4.939,4.939-4.939h26.352c2.728,0,4.94,2.211,4.94,4.939V263.884z"/>
</g>
<path style="opacity:0.05;enable-background:new    ;" d="M488.143,263.884c0-50.127-17.897-96.069-47.642-131.801
	c-0.09,0.379-0.186,0.755-0.268,1.138c-7.267,34.23-10.93,69.127-10.93,104.12v32.3c0,19.689,12.806,36.377,30.539,42.217v56.31
	C477.821,337.573,488.143,301.937,488.143,263.884z"/>
<path style="opacity:0.05;enable-background:new    ;" d="M116.118,141.471v35.251c0,7.81-6.331,14.141-14.141,14.141
	c-4.346,0-8.23-1.964-10.824-5.049c-9.862,24.082-15.313,50.438-15.313,78.071c0,30.724,6.732,59.872,18.784,86.066v-74.377
	c25.752-3.918,45.484-26.156,45.484-53.003V114.333C131.345,122.651,123.316,131.734,116.118,141.471z"/>
<g>
	<path style="fill:#BCBCBC;" d="M502.754,41.969c-23.14,0-43.125,16.188-47.93,38.823l0,0c-7.267,34.23-10.93,69.127-10.93,104.12
		v32.3c0,19.689,12.806,36.377,30.539,42.217V437.35c0,10.374,8.41,18.784,18.784,18.784s18.784-8.41,18.784-18.784V51.216
		C512,46.109,507.86,41.969,502.754,41.969z"/>
	<path style="fill:#BCBCBC;" d="M116.541,41.969c-6.625,0-11.996,5.37-11.996,11.996v73.329c0,7.81-6.331,14.141-14.141,14.141
		s-14.141-6.331-14.141-14.141V53.965c0-6.625-5.371-11.996-11.995-11.996c-6.625,0-11.996,5.37-11.996,11.996v73.329
		c0,7.81-6.331,14.141-14.141,14.141s-14.141-6.331-14.141-14.141V53.965c0-6.625-5.371-11.996-11.996-11.996l0,0
		C5.371,41.969,0,47.34,0,53.965v119.178c0,26.847,19.732,49.084,45.484,53.002v211.204c0,10.374,8.41,18.784,18.784,18.784l0,0
		c10.374,0,18.784-8.41,18.784-18.784V226.146c25.752-3.918,45.484-26.156,45.484-53.003V53.965
		C128.536,47.34,123.166,41.969,116.541,41.969z"/>
</g>
<g>
</g>
<g>
</g>
<g>
</g>
<g>
</g>
<g>
</g>
<g>
</g>
<g>
</g>
<g>
</g>
<g>
</g>
<g>
</g>
<g>
</g>
<g>
</g>
<g>
</g>
<g>
</g>
<g>
</g>
</svg>
