<?xml version="1.0" encoding="iso-8859-1"?>
<!-- Generator: Adobe Illustrator 19.0.0, SVG Export Plug-In . SVG Version: 6.00 Build 0)  -->
<svg version="1.1" id="Capa_1" xmlns="http://www.w3.org/2000/svg" xmlns:xlink="http://www.w3.org/1999/xlink" x="0px" y="0px"
	 viewBox="0 0 512.001 512.001" style="enable-background:new 0 0 512.001 512.001;" xml:space="preserve">
<rect x="69.38" y="70.35" style="fill:#F1F1F1;" width="98.77" height="125.48"/>
<polygon style="opacity:0.1;enable-background:new    ;" points="69.38,70.352 69.38,195.83 93.052,195.83 93.052,94.488 
	168.144,94.488 168.144,70.352 "/>
<path style="fill:#9B7E73;" d="M174.294,21.28H63.23c-8.783,0-15.903,7.12-15.903,15.904v17.265c0,8.783,7.12,15.904,15.903,15.904
	h111.064c8.783,0,15.904-7.12,15.904-15.904V37.183C190.198,28.4,183.077,21.28,174.294,21.28z"/>
<path style="fill:#F1F1F1;" d="M452.567,219.253L256,131.608L59.433,219.253v245.393c0,14.401,11.674,26.075,26.075,26.075h340.984
	c14.401,0,26.075-11.674,26.075-26.075L452.567,219.253L452.567,219.253z"/>
<g style="opacity:0.1;">
	<path d="M408.929,394.117h-43.638c-4.142,0-7.5-3.357-7.5-7.5s3.358-7.5,7.5-7.5h43.638c4.142,0,7.5,3.357,7.5,7.5
		S413.071,394.117,408.929,394.117z"/>
	<path d="M408.929,367.267h-43.638c-4.142,0-7.5-3.357-7.5-7.5s3.358-7.5,7.5-7.5h43.638c4.142,0,7.5,3.357,7.5,7.5
		S413.071,367.267,408.929,367.267z"/>
	<path d="M387.11,394.117c-4.142,0-7.5-3.357-7.5-7.5v-26.851c0-4.143,3.358-7.5,7.5-7.5s7.5,3.357,7.5,7.5v26.851
		C394.61,390.76,391.252,394.117,387.11,394.117z"/>
</g>
<g style="opacity:0.1;">
	<path d="M415.883,285.983h-41.184c-4.142,0-7.5-3.357-7.5-7.5s3.358-7.5,7.5-7.5h41.184c4.142,0,7.5,3.357,7.5,7.5
		S420.025,285.983,415.883,285.983z"/>
	<path d="M402.929,259.134h-41.638c-4.142,0-7.5-3.357-7.5-7.5s3.358-7.5,7.5-7.5h41.638c4.142,0,7.5,3.357,7.5,7.5
		S407.071,259.134,402.929,259.134z"/>
	<path d="M387.11,285.983c-4.142,0-7.5-3.357-7.5-7.5v-26.85c0-4.143,3.358-7.5,7.5-7.5s7.5,3.357,7.5,7.5v26.85
		C394.61,282.626,391.252,285.983,387.11,285.983z"/>
</g>
<g style="opacity:0.1;">
	<path d="M123.602,339.684H79.965c-4.142,0-7.5-3.357-7.5-7.5s3.358-7.5,7.5-7.5h43.638c4.142,0,7.5,3.357,7.5,7.5
		C131.102,336.326,127.745,339.684,123.602,339.684z"/>
	<path d="M141.333,312.833H79.965c-4.142,0-7.5-3.357-7.5-7.5s3.358-7.5,7.5-7.5h61.369c4.142,0,7.5,3.357,7.5,7.5
		S145.476,312.833,141.333,312.833z"/>
	<path d="M101.784,339.684c-4.142,0-7.5-3.357-7.5-7.5v-26.851c0-4.143,3.358-7.5,7.5-7.5s7.5,3.357,7.5,7.5v26.851
		C109.284,336.326,105.926,339.684,101.784,339.684z"/>
	<path d="M123.602,312.833c-4.142,0-7.5-3.357-7.5-7.5v-26.85c0-4.143,3.358-7.5,7.5-7.5s7.5,3.357,7.5,7.5v26.85
		C131.102,309.476,127.745,312.833,123.602,312.833z"/>
</g>
<path style="opacity:0.1;enable-background:new    ;" d="M256,131.608L59.433,219.253v245.392c0,14.401,11.674,26.075,26.075,26.075
	h28.235V251.629l118.685-52.302c15.018-6.618,32.126-6.618,47.144,0l172.995,76.235v-56.309L256,131.608z"/>
<path style="fill:#FBAB5F;" d="M473.102,259.454l-193.53-85.284c-15.018-6.618-32.126-6.618-47.144,0L38.899,259.454
	c-9.589,4.225-20.787-0.122-25.012-9.711L1.616,221.899c-4.226-9.589,0.122-20.787,9.711-25.013l221.102-97.435
	c15.018-6.618,32.126-6.618,47.144,0l221.101,97.435c9.589,4.225,13.936,15.424,9.711,25.012l-12.27,27.844
	C493.889,259.331,482.69,263.679,473.102,259.454z"/>
<path style="fill:#E77587;" d="M223.18,490.721c0-33.98-27.547-61.527-61.527-61.527l0,0c-33.98,0-61.527,27.547-61.527,61.527
	H223.18z"/>
<path style="opacity:0.1;enable-background:new    ;" d="M161.653,429.194L161.653,429.194c-16.866,0-32.144,6.788-43.258,17.779
	c13.019,6.516,27.709,10.188,43.258,10.188s30.239-3.673,43.258-10.188C193.797,435.982,178.519,429.194,161.653,429.194z"/>
<g>
	<circle style="fill:#FFD4B8;" cx="64.862" cy="351.62" r="17.07"/>
	<circle style="fill:#FFD4B8;" cx="258.44" cy="351.62" r="17.07"/>
</g>
<path style="opacity:0.3;fill:#FFFFFF;enable-background:new    ;" d="M161.653,429.194L161.653,429.194
	c-21.976,0-41.248,11.53-52.131,28.861c15.735,7.712,33.426,12.048,52.131,12.048s36.396-4.336,52.131-12.048
	C202.901,440.723,183.629,429.194,161.653,429.194z"/>
<circle style="fill:#FFD4B8;" cx="161.65" cy="351.5" r="96.79"/>
<g>
	<path style="fill:#4A5058;" d="M112.573,359.121c-4.142,0-7.5-3.357-7.5-7.5v-9.643c0-4.143,3.358-7.5,7.5-7.5s7.5,3.357,7.5,7.5
		v9.643C120.073,355.764,116.715,359.121,112.573,359.121z"/>
	<path style="fill:#4A5058;" d="M210.733,359.121c-4.142,0-7.5-3.357-7.5-7.5v-9.643c0-4.143,3.358-7.5,7.5-7.5s7.5,3.357,7.5,7.5
		v9.643C218.233,355.764,214.875,359.121,210.733,359.121z"/>
	<path style="fill:#4A5058;" d="M161.653,385.717c-5.931,0-11.661-2.485-15.721-6.818c-2.832-3.022-2.678-7.768,0.345-10.6
		c3.022-2.831,7.769-2.679,10.601,0.345c1.253,1.338,2.949,2.074,4.774,2.074s3.521-0.736,4.774-2.074
		c2.833-3.024,7.579-3.178,10.601-0.345c3.023,2.832,3.177,7.578,0.345,10.6C173.313,383.231,167.583,385.717,161.653,385.717z"/>
	<path style="fill:#4A5058;" d="M161.653,254.704c-53.456,0-96.791,43.335-96.791,96.791c15.044,0,30.952-16.02,32.595-48.706
		c10.305,11.541,69.265,34.371,130.584,16.028c5.157,21.898,18.067,32.678,30.403,32.678
		C258.444,298.039,215.109,254.704,161.653,254.704z"/>
</g>
<path style="opacity:0.1;fill:#513130;enable-background:new    ;" d="M175.997,436.067c-53.456,0-96.791-43.335-96.791-96.791
	c0-26.127,10.356-49.833,27.182-67.246c-25.099,17.488-41.527,46.556-41.527,79.465c0,53.456,43.335,96.791,96.791,96.791
	c27.329,0,52.008-11.33,69.608-29.544C215.591,429.659,196.544,436.067,175.997,436.067z"/>
<path style="fill:#76C9D2;" d="M411.874,490.721c0-33.98-27.546-61.527-61.527-61.527l0,0c-33.98,0-61.527,27.547-61.527,61.527
	H411.874z"/>
<path style="opacity:0.1;enable-background:new    ;" d="M350.347,429.194L350.347,429.194c-16.866,0-32.144,6.788-43.258,17.779
	c13.019,6.516,27.709,10.188,43.258,10.188s30.239-3.673,43.258-10.188C382.491,435.982,367.213,429.194,350.347,429.194z"/>
<g>
	<circle style="fill:#E6B292;" cx="253.56" cy="351.62" r="17.07"/>
	<circle style="fill:#E6B292;" cx="447.14" cy="351.62" r="17.07"/>
	<circle style="fill:#E6B292;" cx="350.35" cy="351.5" r="96.79"/>
</g>
<g>
	<path style="fill:#4A5058;" d="M432.776,300.758c1.629-4.098,2.534-8.562,2.534-13.24c0-19.818-16.066-35.884-35.884-35.884
		c-6.534,0-12.654,1.755-17.931,4.806c-6.914-9.753-18.284-16.125-31.149-16.125s-24.235,6.372-31.15,16.125
		c-5.277-3.051-11.397-4.806-17.931-4.806c-19.818,0-35.884,16.066-35.884,35.884c0,4.678,0.902,9.144,2.532,13.241
		c-8.445,13.694-13.578,29.649-14.271,46.75c17.678-2.59,35.311-33.519,35.176-39.508c15.68,11.5,87.038,19.732,120.109-6.134
		c6.94,9.886,18.313,48.601,38.145,46.28C446.484,330.804,441.327,314.623,432.776,300.758z"/>
	<path style="fill:#4A5058;" d="M301.267,359.121c-4.142,0-7.5-3.357-7.5-7.5v-9.643c0-4.143,3.358-7.5,7.5-7.5s7.5,3.357,7.5,7.5
		v9.643C308.767,355.764,305.409,359.121,301.267,359.121z"/>
	<path style="fill:#4A5058;" d="M399.427,359.121c-4.142,0-7.5-3.357-7.5-7.5v-9.643c0-4.143,3.358-7.5,7.5-7.5s7.5,3.357,7.5,7.5
		v9.643C406.927,355.764,403.569,359.121,399.427,359.121z"/>
	<path style="fill:#4A5058;" d="M350.347,385.717c-5.93,0-11.66-2.485-15.72-6.818c-2.832-3.022-2.678-7.768,0.345-10.6
		c3.023-2.831,7.769-2.679,10.601,0.345c1.253,1.338,2.949,2.074,4.774,2.074c1.826,0,3.521-0.736,4.774-2.074
		c2.833-3.024,7.579-3.178,10.601-0.345c3.023,2.832,3.177,7.578,0.345,10.6C362.007,383.231,356.277,385.717,350.347,385.717z"/>
</g>
<path style="opacity:0.1;fill:#513130;enable-background:new    ;" d="M364.691,436.067c-53.456,0-96.791-43.335-96.791-96.791
	c0-11.15,1.892-21.857,5.362-31.824c-2.588-2.638-4.769-5.188-5.347-6.694l-0.001-0.002c-9.102,14.753-14.358,32.131-14.358,50.739
	c0,53.456,43.335,96.791,96.791,96.791c27.329,0,52.008-11.33,69.608-29.544C404.285,429.659,385.238,436.067,364.691,436.067z"/>
<path style="opacity:0.3;fill:#FFFFFF;enable-background:new    ;" d="M375.063,490.721c0-13.65-11.066-24.716-24.716-24.716
	s-24.716,11.066-24.716,24.716H375.063z"/>
<g>
</g>
<g>
</g>
<g>
</g>
<g>
</g>
<g>
</g>
<g>
</g>
<g>
</g>
<g>
</g>
<g>
</g>
<g>
</g>
<g>
</g>
<g>
</g>
<g>
</g>
<g>
</g>
<g>
</g>
</svg>
